SIR Modeling: Covid19 in Malaysia
…
Libraries

library(tidyverse)
library(deSolve)
library(lubridate)
library(ggpubr)
library(plotly)

Fetch local datasets

mys_data = read_csv("https://wnarifin.github.com/covid-19-malaysia/covid-19_my_full.csv") %>% select(1:10) %>% rename(Date = "date")
mys_data$active = with(mys_data, total_cases - total_deaths - total_recover)
mys_data

## # A tibble: 112 x 11
##    Date       location new_cases new_deaths total_cases total_deaths recover
##    <date>     <chr>        <dbl>      <dbl>       <dbl>        <dbl>   <dbl>
##  1 2019-12-31 Malaysia         0          0           0            0       0
##  2 2020-01-01 Malaysia         0          0           0            0       0
##  3 2020-01-02 Malaysia         0          0           0            0       0
##  4 2020-01-03 Malaysia         0          0           0            0       0
##  5 2020-01-04 Malaysia         0          0           0            0       0
##  6 2020-01-05 Malaysia         0          0           0            0       0
##  7 2020-01-06 Malaysia         0          0           0            0       0
##  8 2020-01-07 Malaysia         0          0           0            0       0
##  9 2020-01-08 Malaysia         0          0           0            0       0
## 10 2020-01-09 Malaysia         0          0           0            0       0
## # ... with 102 more rows, and 4 more variables: total_recover <dbl>, icu <dbl>,
## #   support <dbl>, active <dbl>
…
